%YAML 1.1
%TAG !u! tag:unity3d.com,2011:
--- !u!21 &2100000
Material:
  serializedVersion: 6
  m_ObjectHideFlags: 0
  m_PrefabParentObject: {fileID: 0}
  m_PrefabInternal: {fileID: 0}
  m_Name: car05b_(audi)_lod0-bilar
  m_Shader: {fileID: 22, guid: 0000000000000000f000000000000000, type: 0}
  m_ShaderKeywords: 
  m_LightmapFlags: 4
  m_EnableInstancingVariants: 0
  m_DoubleSidedGI: 0
  m_CustomRenderQueue: -1
  stringTagMap: {}
  disabledShaderPasses: []
  m_SavedProperties:
    serializedVersion: 3
    m_TexEnvs:
    - _Cube:
        m_Texture: {fileID: 8900000, guid: 1d16e8153af833e49b781eecd111dc26, type: 3}
        m_Scale: {x: 1, y: 1}
        m_Offset: {x: 0, y: 0}
    - _MainTex:
        m_Texture: {fileID: 2800000, guid: b8e2824db764e3242bf988afbb8f30d1, type: 3}
        m_Scale: {x: 1, y: 1}
        m_Offset: {x: 0, y: 0}
    m_Floats:
    - _Shininess: 0.078125
    m_Colors:
    - _Color: {r: 1, g: 1, b: 1, a: 1}
    - _ReflectColor: {r: 0.5, g: 0.5, b: 0.5, a: 0.5019608}
    - _SpecColor: {r: 0.5, g: 0.5, b: 0.5, a: 1}
--- !u!1002 &2100001
EditorExtensionImpl:
  serializedVersion: 6
