%YAML 1.1
%TAG !u! tag:unity3d.com,2011:
--- !u!29 &1
OcclusionCullingSettings:
  m_ObjectHideFlags: 0
  serializedVersion: 2
  m_OcclusionBakeSettings:
    smallestOccluder: 5
    smallestHole: 0.25
    backfaceThreshold: 100
  m_SceneGUID: 00000000000000000000000000000000
  m_OcclusionCullingData: {fileID: 0}
--- !u!104 &2
RenderSettings:
  m_ObjectHideFlags: 0
  serializedVersion: 9
  m_Fog: 0
  m_FogColor: {r: 0.5, g: 0.5, b: 0.5, a: 1}
  m_FogMode: 3
  m_FogDensity: 0.01
  m_LinearFogStart: 0
  m_LinearFogEnd: 300
  m_AmbientSkyColor: {r: 0.212, g: 0.227, b: 0.259, a: 1}
  m_AmbientEquatorColor: {r: 0.114, g: 0.125, b: 0.133, a: 1}
  m_AmbientGroundColor: {r: 0.047, g: 0.043, b: 0.035, a: 1}
  m_AmbientIntensity: 1
  m_AmbientMode: 0
  m_SubtractiveShadowColor: {r: 0.42, g: 0.478, b: 0.627, a: 1}
  m_SkyboxMaterial: {fileID: 10304, guid: 0000000000000000f000000000000000, type: 0}
  m_HaloStrength: 0.5
  m_FlareStrength: 1
  m_FlareFadeSpeed: 3
  m_HaloTexture: {fileID: 0}
  m_SpotCookie: {fileID: 10001, guid: 0000000000000000e000000000000000, type: 0}
  m_DefaultReflectionMode: 0
  m_DefaultReflectionResolution: 128
  m_ReflectionBounces: 1
  m_ReflectionIntensity: 1
  m_CustomReflection: {fileID: 0}
  m_Sun: {fileID: 0}
  m_IndirectSpecularColor: {r: 0, g: 0, b: 0, a: 1}
  m_UseRadianceAmbientProbe: 0
--- !u!157 &3
LightmapSettings:
  m_ObjectHideFlags: 0
  serializedVersion: 11
  m_GIWorkflowMode: 0
  m_GISettings:
    serializedVersion: 2
    m_BounceScale: 1
    m_IndirectOutputScale: 1
    m_AlbedoBoost: 1
    m_TemporalCoherenceThreshold: 1
    m_EnvironmentLightingMode: 0
    m_EnableBakedLightmaps: 1
    m_EnableRealtimeLightmaps: 1
  m_LightmapEditorSettings:
    serializedVersion: 10
    m_Resolution: 2
    m_BakeResolution: 40
    m_AtlasSize: 1024
    m_AO: 0
    m_AOMaxDistance: 1
    m_CompAOExponent: 1
    m_CompAOExponentDirect: 0
    m_Padding: 2
    m_LightmapParameters: {fileID: 0}
    m_LightmapsBakeMode: 1
    m_TextureCompression: 1
    m_FinalGather: 0
    m_FinalGatherFiltering: 1
    m_FinalGatherRayCount: 256
    m_ReflectionCompression: 2
    m_MixedBakeMode: 2
    m_BakeBackend: 0
    m_PVRSampling: 1
    m_PVRDirectSampleCount: 32
    m_PVRSampleCount: 500
    m_PVRBounces: 2
    m_PVRFilterTypeDirect: 0
    m_PVRFilterTypeIndirect: 0
    m_PVRFilterTypeAO: 0
    m_PVRFilteringMode: 1
    m_PVRCulling: 1
    m_PVRFilteringGaussRadiusDirect: 1
    m_PVRFilteringGaussRadiusIndirect: 5
    m_PVRFilteringGaussRadiusAO: 2
    m_PVRFilteringAtrousPositionSigmaDirect: 0.5
    m_PVRFilteringAtrousPositionSigmaIndirect: 2
    m_PVRFilteringAtrousPositionSigmaAO: 1
    m_ShowResolutionOverlay: 1
  m_LightingDataAsset: {fileID: 0}
  m_UseShadowmask: 1
--- !u!196 &4
NavMeshSettings:
  serializedVersion: 2
  m_ObjectHideFlags: 0
  m_BuildSettings:
    serializedVersion: 2
    agentTypeID: 0
    agentRadius: 0.5
    agentHeight: 2
    agentSlope: 45
    agentClimb: 0.4
    ledgeDropHeight: 0
    maxJumpAcrossDistance: 0
    minRegionArea: 2
    manualCellSize: 0
    cellSize: 0.16666667
    manualTileSize: 0
    tileSize: 256
    accuratePlacement: 0
    debug:
      m_Flags: 0
  m_NavMeshData: {fileID: 0}
--- !u!1 &153259276
GameObject:
  m_ObjectHideFlags: 0
  m_PrefabParentObject: {fileID: 1569040240198844, guid: 5d6825fa9f2b65046bb1d40e309ee4e6,
    type: 2}
  m_PrefabInternal: {fileID: 1406629791}
  serializedVersion: 5
  m_Component:
  - component: {fileID: 153259277}
  - component: {fileID: 153259279}
  - component: {fileID: 153259278}
  m_Layer: 0
  m_Name: Hang3
  m_TagString: Untagged
  m_Icon: {fileID: 0}
  m_NavMeshLayer: 0
  m_StaticEditorFlags: 0
  m_IsActive: 1
--- !u!4 &153259277
Transform:
  m_ObjectHideFlags: 0
  m_PrefabParentObject: {fileID: 4240335177564032, guid: 5d6825fa9f2b65046bb1d40e309ee4e6,
    type: 2}
  m_PrefabInternal: {fileID: 1406629791}
  m_GameObject: {fileID: 153259276}
  m_LocalRotation: {x: -0.000000015454312, y: 0.7071067, z: 0.000000015454308, w: 0.7071068}
  m_LocalPosition: {x: 0.24385361, y: 0.27653638, z: 1.232845}
  m_LocalScale: {x: 0.6564196, y: 0.6564196, z: 0.41621685}
  m_Children: []
  m_Father: {fileID: 592565228}
  m_RootOrder: 8
  m_LocalEulerAnglesHint: {x: 0, y: 0, z: 0}
--- !u!23 &153259278
MeshRenderer:
  m_ObjectHideFlags: 0
  m_PrefabParentObject: {fileID: 23591356602822090, guid: 5d6825fa9f2b65046bb1d40e309ee4e6,
    type: 2}
  m_PrefabInternal: {fileID: 1406629791}
  m_GameObject: {fileID: 153259276}
  m_Enabled: 1
  m_CastShadows: 1
  m_ReceiveShadows: 1
  m_DynamicOccludee: 1
  m_MotionVectors: 1
  m_LightProbeUsage: 1
  m_ReflectionProbeUsage: 1
  m_RenderingLayerMask: 4294967295
  m_Materials:
  - {fileID: 2100000, guid: a921dc4b007475748ae3e453645271b6, type: 2}
  m_StaticBatchInfo:
    firstSubMesh: 0
    subMeshCount: 0
  m_StaticBatchRoot: {fileID: 0}
  m_ProbeAnchor: {fileID: 0}
  m_LightProbeVolumeOverride: {fileID: 0}
  m_ScaleInLightmap: 1
  m_PreserveUVs: 0
  m_IgnoreNormalsForChartDetection: 0
  m_ImportantGI: 0
  m_StitchLightmapSeams: 0
  m_SelectedEditorRenderState: 3
  m_MinimumChartSize: 4
  m_AutoUVMaxDistance: 0.5
  m_AutoUVMaxAngle: 89
  m_LightmapParameters: {fileID: 0}
  m_SortingLayerID: 0
  m_SortingLayer: 0
  m_SortingOrder: 0
--- !u!33 &153259279
MeshFilter:
  m_ObjectHideFlags: 0
  m_PrefabParentObject: {fileID: 33940916918740086, guid: 5d6825fa9f2b65046bb1d40e309ee4e6,
    type: 2}
  m_PrefabInternal: {fileID: 1406629791}
  m_GameObject: {fileID: 153259276}
  m_Mesh: {fileID: 4300012, guid: b16a7d757f6a821439dd5465eabc9d3e, type: 3}
--- !u!1 &419974626
GameObject:
  m_ObjectHideFlags: 0
  m_PrefabParentObject: {fileID: 1908939296390798, guid: 5d6825fa9f2b65046bb1d40e309ee4e6,
    type: 2}
  m_PrefabInternal: {fileID: 1406629791}
  serializedVersion: 5
  m_Component:
  - component: {fileID: 419974627}
  - component: {fileID: 419974629}
  - component: {fileID: 419974628}
  m_Layer: 0
  m_Name: Flag
  m_TagString: Untagged
  m_Icon: {fileID: 0}
  m_NavMeshLayer: 0
  m_StaticEditorFlags: 0
  m_IsActive: 1
--- !u!4 &419974627
Transform:
  m_ObjectHideFlags: 0
  m_PrefabParentObject: {fileID: 4822051850274986, guid: 5d6825fa9f2b65046bb1d40e309ee4e6,
    type: 2}
  m_PrefabInternal: {fileID: 1406629791}
  m_GameObject: {fileID: 419974626}
  m_LocalRotation: {x: 0.70710677, y: -0.000073887655, z: 0.000073887626, w: -0.7071068}
  m_LocalPosition: {x: -0.0002037065, y: 0.02740894, z: 0.012724507}
  m_LocalScale: {x: 0.7964986, y: 1.2624456, z: 0.616791}
  m_Children: []
  m_Father: {fileID: 1089356982}
  m_RootOrder: 0
  m_LocalEulerAnglesHint: {x: 0, y: 0, z: 0}
--- !u!23 &419974628
MeshRenderer:
  m_ObjectHideFlags: 0
  m_PrefabParentObject: {fileID: 23348511316702228, guid: 5d6825fa9f2b65046bb1d40e309ee4e6,
    type: 2}
  m_PrefabInternal: {fileID: 1406629791}
  m_GameObject: {fileID: 419974626}
  m_Enabled: 1
  m_CastShadows: 1
  m_ReceiveShadows: 1
  m_DynamicOccludee: 1
  m_MotionVectors: 1
  m_LightProbeUsage: 1
  m_ReflectionProbeUsage: 1
  m_RenderingLayerMask: 4294967295
  m_Materials:
  - {fileID: 2100000, guid: 82f54b9b6ca8c1a46a994f0e3f3f44f2, type: 2}
  m_StaticBatchInfo:
    firstSubMesh: 0
    subMeshCount: 0
  m_StaticBatchRoot: {fileID: 0}
  m_ProbeAnchor: {fileID: 0}
  m_LightProbeVolumeOverride: {fileID: 0}
  m_ScaleInLightmap: 1
  m_PreserveUVs: 0
  m_IgnoreNormalsForChartDetection: 0
  m_ImportantGI: 0
  m_StitchLightmapSeams: 0
  m_SelectedEditorRenderState: 3
  m_MinimumChartSize: 4
  m_AutoUVMaxDistance: 0.5
  m_AutoUVMaxAngle: 89
  m_LightmapParameters: {fileID: 0}
  m_SortingLayerID: 0
  m_SortingLayer: 0
  m_SortingOrder: 0
--- !u!33 &419974629
MeshFilter:
  m_ObjectHideFlags: 0
  m_PrefabParentObject: {fileID: 33660989371633290, guid: 5d6825fa9f2b65046bb1d40e309ee4e6,
    type: 2}
  m_PrefabInternal: {fileID: 1406629791}
  m_GameObject: {fileID: 419974626}
  m_Mesh: {fileID: 4300000, guid: 2ebea421b4c730a41bb6f32f665631a9, type: 3}
--- !u!1 &592565227
GameObject:
  m_ObjectHideFlags: 0
  m_PrefabParentObject: {fileID: 1591034186991406, guid: 5d6825fa9f2b65046bb1d40e309ee4e6,
    type: 2}
  m_PrefabInternal: {fileID: 1406629791}
  serializedVersion: 5
  m_Component:
  - component: {fileID: 592565228}
  m_Layer: 0
  m_Name: MetalParts
  m_TagString: Untagged
  m_Icon: {fileID: 0}
  m_NavMeshLayer: 0
  m_StaticEditorFlags: 0
  m_IsActive: 1
--- !u!4 &592565228
Transform:
  m_ObjectHideFlags: 0
  m_PrefabParentObject: {fileID: 4136656634315232, guid: 5d6825fa9f2b65046bb1d40e309ee4e6,
    type: 2}
  m_PrefabInternal: {fileID: 1406629791}
  m_GameObject: {fileID: 592565227}
  m_LocalRotation: {x: 0.7071069, y: 0.000000015454308, z: 0.000000015454312, w: 0.7071067}
  m_LocalPosition: {x: -0.000033043165, y: 0.017825939, z: -0.009745716}
  m_LocalScale: {x: 0.042668767, y: 0.020243442, z: 0.028352084}
  m_Children:
  - {fileID: 1126888901}
  - {fileID: 951564439}
  - {fileID: 1663777035}
  - {fileID: 1123307008}
  - {fileID: 1418067065}
  - {fileID: 1238516388}
  - {fileID: 2066434730}
  - {fileID: 977638492}
  - {fileID: 153259277}
  m_Father: {fileID: 1089356982}
  m_RootOrder: 1
  m_LocalEulerAnglesHint: {x: 0, y: 0, z: 0}
--- !u!1 &623311687
GameObject:
  m_ObjectHideFlags: 0
  m_PrefabParentObject: {fileID: 0}
  m_PrefabInternal: {fileID: 0}
  serializedVersion: 5
  m_Component:
  - component: {fileID: 623311691}
  - component: {fileID: 623311690}
  - component: {fileID: 623311689}
  - component: {fileID: 623311688}
  m_Layer: 0
  m_Name: Cube
  m_TagString: Untagged
  m_Icon: {fileID: 0}
  m_NavMeshLayer: 0
  m_StaticEditorFlags: 0
  m_IsActive: 1
--- !u!23 &623311688
MeshRenderer:
  m_ObjectHideFlags: 0
  m_PrefabParentObject: {fileID: 0}
  m_PrefabInternal: {fileID: 0}
  m_GameObject: {fileID: 623311687}
  m_Enabled: 1
  m_CastShadows: 1
  m_ReceiveShadows: 1
  m_DynamicOccludee: 1
  m_MotionVectors: 1
  m_LightProbeUsage: 1
  m_ReflectionProbeUsage: 1
  m_RenderingLayerMask: 4294967295
  m_Materials:
  - {fileID: 10303, guid: 0000000000000000f000000000000000, type: 0}
  m_StaticBatchInfo:
    firstSubMesh: 0
    subMeshCount: 0
  m_StaticBatchRoot: {fileID: 0}
  m_ProbeAnchor: {fileID: 0}
  m_LightProbeVolumeOverride: {fileID: 0}
  m_ScaleInLightmap: 1
  m_PreserveUVs: 1
  m_IgnoreNormalsForChartDetection: 0
  m_ImportantGI: 0
  m_StitchLightmapSeams: 0
  m_SelectedEditorRenderState: 3
  m_MinimumChartSize: 4
  m_AutoUVMaxDistance: 0.5
  m_AutoUVMaxAngle: 89
  m_LightmapParameters: {fileID: 0}
  m_SortingLayerID: 0
  m_SortingLayer: 0
  m_SortingOrder: 0
--- !u!65 &623311689
BoxCollider:
  m_ObjectHideFlags: 0
  m_PrefabParentObject: {fileID: 0}
  m_PrefabInternal: {fileID: 0}
  m_GameObject: {fileID: 623311687}
  m_Material: {fileID: 0}
  m_IsTrigger: 0
  m_Enabled: 1
  serializedVersion: 2
  m_Size: {x: 1, y: 1, z: 1}
  m_Center: {x: 0, y: 0, z: 0}
--- !u!33 &623311690
MeshFilter:
  m_ObjectHideFlags: 0
  m_PrefabParentObject: {fileID: 0}
  m_PrefabInternal: {fileID: 0}
  m_GameObject: {fileID: 623311687}
  m_Mesh: {fileID: 10202, guid: 0000000000000000e000000000000000, type: 0}
--- !u!4 &623311691
Transform:
  m_ObjectHideFlags: 0
  m_PrefabParentObject: {fileID: 0}
  m_PrefabInternal: {fileID: 0}
  m_GameObject: {fileID: 623311687}
  m_LocalRotation: {x: 0, y: 0, z: 0, w: 1}
  m_LocalPosition: {x: 12.07, y: -0.755, z: 10.21}
  m_LocalScale: {x: 4.065679, y: 0.033664677, z: 4.0656767}
  m_Children: []
  m_Father: {fileID: 0}
  m_RootOrder: 3
  m_LocalEulerAnglesHint: {x: 0, y: 0, z: 0}
--- !u!1 &951564438
GameObject:
  m_ObjectHideFlags: 0
  m_PrefabParentObject: {fileID: 1794901758252058, guid: 5d6825fa9f2b65046bb1d40e309ee4e6,
    type: 2}
  m_PrefabInternal: {fileID: 1406629791}
  serializedVersion: 5
  m_Component:
  - component: {fileID: 951564439}
  - component: {fileID: 951564441}
  - component: {fileID: 951564440}
  m_Layer: 0
  m_Name: DoorPart2
  m_TagString: Untagged
  m_Icon: {fileID: 0}
  m_NavMeshLayer: 0
  m_StaticEditorFlags: 0
  m_IsActive: 1
--- !u!4 &951564439
Transform:
  m_ObjectHideFlags: 0
  m_PrefabParentObject: {fileID: 4722085663831438, guid: 5d6825fa9f2b65046bb1d40e309ee4e6,
    type: 2}
  m_PrefabInternal: {fileID: 1406629791}
  m_GameObject: {fileID: 951564438}
  m_LocalRotation: {x: 0.49999997, y: 0.5000001, z: -0.5, w: -0.49999988}
  m_LocalPosition: {x: 0.2789753, y: 0.366498, z: -0.052999314}
  m_LocalScale: {x: 0.5734244, y: 7.4262524, z: 4.0506706}
  m_Children: []
  m_Father: {fileID: 592565228}
  m_RootOrder: 1
  m_LocalEulerAnglesHint: {x: 0, y: 0, z: 0}
--- !u!23 &951564440
MeshRenderer:
  m_ObjectHideFlags: 0
  m_PrefabParentObject: {fileID: 23512915980931858, guid: 5d6825fa9f2b65046bb1d40e309ee4e6,
    type: 2}
  m_PrefabInternal: {fileID: 1406629791}
  m_GameObject: {fileID: 951564438}
  m_Enabled: 1
  m_CastShadows: 1
  m_ReceiveShadows: 1
  m_DynamicOccludee: 1
  m_MotionVectors: 1
  m_LightProbeUsage: 1
  m_ReflectionProbeUsage: 1
  m_RenderingLayerMask: 4294967295
  m_Materials:
  - {fileID: 2100000, guid: a921dc4b007475748ae3e453645271b6, type: 2}
  m_StaticBatchInfo:
    firstSubMesh: 0
    subMeshCount: 0
  m_StaticBatchRoot: {fileID: 0}
  m_ProbeAnchor: {fileID: 0}
  m_LightProbeVolumeOverride: {fileID: 0}
  m_ScaleInLightmap: 1
  m_PreserveUVs: 0
  m_IgnoreNormalsForChartDetection: 0
  m_ImportantGI: 0
  m_StitchLightmapSeams: 0
  m_SelectedEditorRenderState: 3
  m_MinimumChartSize: 4
  m_AutoUVMaxDistance: 0.5
  m_AutoUVMaxAngle: 89
  m_LightmapParameters: {fileID: 0}
  m_SortingLayerID: 0
  m_SortingLayer: 0
  m_SortingOrder: 0
--- !u!33 &951564441
MeshFilter:
  m_ObjectHideFlags: 0
  m_PrefabParentObject: {fileID: 33846239222941902, guid: 5d6825fa9f2b65046bb1d40e309ee4e6,
    type: 2}
  m_PrefabInternal: {fileID: 1406629791}
  m_GameObject: {fileID: 951564438}
  m_Mesh: {fileID: 4300008, guid: b16a7d757f6a821439dd5465eabc9d3e, type: 3}
--- !u!1 &977638491
GameObject:
  m_ObjectHideFlags: 0
  m_PrefabParentObject: {fileID: 1696013721388686, guid: 5d6825fa9f2b65046bb1d40e309ee4e6,
    type: 2}
  m_PrefabInternal: {fileID: 1406629791}
  serializedVersion: 5
  m_Component:
  - component: {fileID: 977638492}
  - component: {fileID: 977638494}
  - component: {fileID: 977638493}
  m_Layer: 0
  m_Name: Hang2
  m_TagString: Untagged
  m_Icon: {fileID: 0}
  m_NavMeshLayer: 0
  m_StaticEditorFlags: 0
  m_IsActive: 1
--- !u!4 &977638492
Transform:
  m_ObjectHideFlags: 0
  m_PrefabParentObject: {fileID: 4500738668821508, guid: 5d6825fa9f2b65046bb1d40e309ee4e6,
    type: 2}
  m_PrefabInternal: {fileID: 1406629791}
  m_GameObject: {fileID: 977638491}
  m_LocalRotation: {x: -0.000000015454312, y: 0.7071067, z: 0.000000015454308, w: 0.7071068}
  m_LocalPosition: {x: 0.24385361, y: 0.27653638, z: 0.8809701}
  m_LocalScale: {x: 0.6564196, y: 0.6564196, z: 0.41621685}
  m_Children: []
  m_Father: {fileID: 592565228}
  m_RootOrder: 7
  m_LocalEulerAnglesHint: {x: 0, y: 0, z: 0}
--- !u!23 &977638493
MeshRenderer:
  m_ObjectHideFlags: 0
  m_PrefabParentObject: {fileID: 23508476763783442, guid: 5d6825fa9f2b65046bb1d40e309ee4e6,
    type: 2}
  m_PrefabInternal: {fileID: 1406629791}
  m_GameObject: {fileID: 977638491}
  m_Enabled: 1
  m_CastShadows: 1
  m_ReceiveShadows: 1
  m_DynamicOccludee: 1
  m_MotionVectors: 1
  m_LightProbeUsage: 1
  m_ReflectionProbeUsage: 1
  m_RenderingLayerMask: 4294967295
  m_Materials:
  - {fileID: 2100000, guid: a921dc4b007475748ae3e453645271b6, type: 2}
  m_StaticBatchInfo:
    firstSubMesh: 0
    subMeshCount: 0
  m_StaticBatchRoot: {fileID: 0}
  m_ProbeAnchor: {fileID: 0}
  m_LightProbeVolumeOverride: {fileID: 0}
  m_ScaleInLightmap: 1
  m_PreserveUVs: 0
  m_IgnoreNormalsForChartDetection: 0
  m_ImportantGI: 0
  m_StitchLightmapSeams: 0
  m_SelectedEditorRenderState: 3
  m_MinimumChartSize: 4
  m_AutoUVMaxDistance: 0.5
  m_AutoUVMaxAngle: 89
  m_LightmapParameters: {fileID: 0}
  m_SortingLayerID: 0
  m_SortingLayer: 0
  m_SortingOrder: 0
--- !u!33 &977638494
MeshFilter:
  m_ObjectHideFlags: 0
  m_PrefabParentObject: {fileID: 33304989852112670, guid: 5d6825fa9f2b65046bb1d40e309ee4e6,
    type: 2}
  m_PrefabInternal: {fileID: 1406629791}
  m_GameObject: {fileID: 977638491}
  m_Mesh: {fileID: 4300014, guid: b16a7d757f6a821439dd5465eabc9d3e, type: 3}
--- !u!1 &1089356979
GameObject:
  m_ObjectHideFlags: 0
  m_PrefabParentObject: {fileID: 1327940276222162, guid: 5d6825fa9f2b65046bb1d40e309ee4e6,
    type: 2}
  m_PrefabInternal: {fileID: 1406629791}
  serializedVersion: 5
  m_Component:
  - component: {fileID: 1089356982}
  - component: {fileID: 1089356981}
  - component: {fileID: 1089356980}
  m_Layer: 0
  m_Name: ChurchForUnity
  m_TagString: Untagged
  m_Icon: {fileID: 0}
  m_NavMeshLayer: 0
  m_StaticEditorFlags: 0
  m_IsActive: 1
--- !u!23 &1089356980
MeshRenderer:
  m_ObjectHideFlags: 0
  m_PrefabParentObject: {fileID: 23943331612232712, guid: 5d6825fa9f2b65046bb1d40e309ee4e6,
    type: 2}
  m_PrefabInternal: {fileID: 1406629791}
  m_GameObject: {fileID: 1089356979}
  m_Enabled: 1
  m_CastShadows: 1
  m_ReceiveShadows: 1
  m_DynamicOccludee: 1
  m_MotionVectors: 1
  m_LightProbeUsage: 1
  m_ReflectionProbeUsage: 1
  m_RenderingLayerMask: 4294967295
  m_Materials:
  - {fileID: 2100000, guid: a479561c4e8c28347b7648433f0edb6d, type: 2}
  - {fileID: 2100000, guid: 7e4d81fddd3c2db4fb1b400aee261f3b, type: 2}
  - {fileID: 2100000, guid: d0923509e1130d34eadd846a631df672, type: 2}
  m_StaticBatchInfo:
    firstSubMesh: 0
    subMeshCount: 0
  m_StaticBatchRoot: {fileID: 0}
  m_ProbeAnchor: {fileID: 0}
  m_LightProbeVolumeOverride: {fileID: 0}
  m_ScaleInLightmap: 1
  m_PreserveUVs: 0
  m_IgnoreNormalsForChartDetection: 0
  m_ImportantGI: 0
  m_StitchLightmapSeams: 0
  m_SelectedEditorRenderState: 3
  m_MinimumChartSize: 4
  m_AutoUVMaxDistance: 0.5
  m_AutoUVMaxAngle: 89
  m_LightmapParameters: {fileID: 0}
  m_SortingLayerID: 0
  m_SortingLayer: 0
  m_SortingOrder: 0
--- !u!33 &1089356981
MeshFilter:
  m_ObjectHideFlags: 0
  m_PrefabParentObject: {fileID: 33750734520604952, guid: 5d6825fa9f2b65046bb1d40e309ee4e6,
    type: 2}
  m_PrefabInternal: {fileID: 1406629791}
  m_GameObject: {fileID: 1089356979}
  m_Mesh: {fileID: 4300018, guid: fa0c8b8d2bf886044941192925d5f468, type: 3}
--- !u!4 &1089356982
Transform:
  m_ObjectHideFlags: 0
  m_PrefabParentObject: {fileID: 4106644747801316, guid: 5d6825fa9f2b65046bb1d40e309ee4e6,
    type: 2}
  m_PrefabInternal: {fileID: 1406629791}
  m_GameObject: {fileID: 1089356979}
  m_LocalRotation: {x: -0.7071069, y: -0.000000015454308, z: -0.000000015454312, w: 0.7071067}
  m_LocalPosition: {x: 13.105774, y: -0.24257389, z: 10.180735}
  m_LocalScale: {x: 23.436346, y: 35.270775, z: 49.398716}
  m_Children:
  - {fileID: 419974627}
  - {fileID: 592565228}
  m_Father: {fileID: 0}
  m_RootOrder: 1
  m_LocalEulerAnglesHint: {x: 0, y: 0, z: 0}
--- !u!1 &1123307007
GameObject:
  m_ObjectHideFlags: 0
  m_PrefabParentObject: {fileID: 1084768302833582, guid: 5d6825fa9f2b65046bb1d40e309ee4e6,
    type: 2}
  m_PrefabInternal: {fileID: 1406629791}
  serializedVersion: 5
  m_Component:
  - component: {fileID: 1123307008}
  - component: {fileID: 1123307010}
  - component: {fileID: 1123307009}
  m_Layer: 0
  m_Name: DoorPart4
  m_TagString: Untagged
  m_Icon: {fileID: 0}
  m_NavMeshLayer: 0
  m_StaticEditorFlags: 0
  m_IsActive: 1
--- !u!4 &1123307008
Transform:
  m_ObjectHideFlags: 0
  m_PrefabParentObject: {fileID: 4424291342617240, guid: 5d6825fa9f2b65046bb1d40e309ee4e6,
    type: 2}
  m_PrefabInternal: {fileID: 1406629791}
  m_GameObject: {fileID: 1123307007}
  m_LocalRotation: {x: 0.49999997, y: 0.5000001, z: -0.5, w: -0.49999988}
  m_LocalPosition: {x: 0.23790178, y: 0.20383891, z: 0.78133863}
  m_LocalScale: {x: 0.5734244, y: 7.4262524, z: 4.0506706}
  m_Children: []
  m_Father: {fileID: 592565228}
  m_RootOrder: 3
  m_LocalEulerAnglesHint: {x: 0, y: 0, z: 0}
--- !u!23 &1123307009
MeshRenderer:
  m_ObjectHideFlags: 0
  m_PrefabParentObject: {fileID: 23532885751731024, guid: 5d6825fa9f2b65046bb1d40e309ee4e6,
    type: 2}
  m_PrefabInternal: {fileID: 1406629791}
  m_GameObject: {fileID: 1123307007}
  m_Enabled: 1
  m_CastShadows: 1
  m_ReceiveShadows: 1
  m_DynamicOccludee: 1
  m_MotionVectors: 1
  m_LightProbeUsage: 1
  m_ReflectionProbeUsage: 1
  m_RenderingLayerMask: 4294967295
  m_Materials:
  - {fileID: 2100000, guid: a921dc4b007475748ae3e453645271b6, type: 2}
  m_StaticBatchInfo:
    firstSubMesh: 0
    subMeshCount: 0
  m_StaticBatchRoot: {fileID: 0}
  m_ProbeAnchor: {fileID: 0}
  m_LightProbeVolumeOverride: {fileID: 0}
  m_ScaleInLightmap: 1
  m_PreserveUVs: 0
  m_IgnoreNormalsForChartDetection: 0
  m_ImportantGI: 0
  m_StitchLightmapSeams: 0
  m_SelectedEditorRenderState: 3
  m_MinimumChartSize: 4
  m_AutoUVMaxDistance: 0.5
  m_AutoUVMaxAngle: 89
  m_LightmapParameters: {fileID: 0}
  m_SortingLayerID: 0
  m_SortingLayer: 0
  m_SortingOrder: 0
--- !u!33 &1123307010
MeshFilter:
  m_ObjectHideFlags: 0
  m_PrefabParentObject: {fileID: 33140080162574984, guid: 5d6825fa9f2b65046bb1d40e309ee4e6,
    type: 2}
  m_PrefabInternal: {fileID: 1406629791}
  m_GameObject: {fileID: 1123307007}
  m_Mesh: {fileID: 4300004, guid: b16a7d757f6a821439dd5465eabc9d3e, type: 3}
--- !u!1 &1126888900
GameObject:
  m_ObjectHideFlags: 0
  m_PrefabParentObject: {fileID: 1921187707941728, guid: 5d6825fa9f2b65046bb1d40e309ee4e6,
    type: 2}
  m_PrefabInternal: {fileID: 1406629791}
  serializedVersion: 5
  m_Component:
  - component: {fileID: 1126888901}
  - component: {fileID: 1126888903}
  - component: {fileID: 1126888902}
  m_Layer: 0
  m_Name: DoorPart1
  m_TagString: Untagged
  m_Icon: {fileID: 0}
  m_NavMeshLayer: 0
  m_StaticEditorFlags: 0
  m_IsActive: 1
--- !u!4 &1126888901
Transform:
  m_ObjectHideFlags: 0
  m_PrefabParentObject: {fileID: 4645975395658488, guid: 5d6825fa9f2b65046bb1d40e309ee4e6,
    type: 2}
  m_PrefabInternal: {fileID: 1406629791}
  m_GameObject: {fileID: 1126888900}
  m_LocalRotation: {x: 0.49999997, y: 0.5000001, z: -0.5, w: -0.49999988}
  m_LocalPosition: {x: 0.2789753, y: 0.20383891, z: -0.052999314}
  m_LocalScale: {x: 0.5734244, y: 7.4262524, z: 4.0506706}
  m_Children: []
  m_Father: {fileID: 592565228}
  m_RootOrder: 0
  m_LocalEulerAnglesHint: {x: 0, y: 0, z: 0}
--- !u!23 &1126888902
MeshRenderer:
  m_ObjectHideFlags: 0
  m_PrefabParentObject: {fileID: 23447978778568536, guid: 5d6825fa9f2b65046bb1d40e309ee4e6,
    type: 2}
  m_PrefabInternal: {fileID: 1406629791}
  m_GameObject: {fileID: 1126888900}
  m_Enabled: 1
  m_CastShadows: 1
  m_ReceiveShadows: 1
  m_DynamicOccludee: 1
  m_MotionVectors: 1
  m_LightProbeUsage: 1
  m_ReflectionProbeUsage: 1
  m_RenderingLayerMask: 4294967295
  m_Materials:
  - {fileID: 2100000, guid: a921dc4b007475748ae3e453645271b6, type: 2}
  m_StaticBatchInfo:
    firstSubMesh: 0
    subMeshCount: 0
  m_StaticBatchRoot: {fileID: 0}
  m_ProbeAnchor: {fileID: 0}
  m_LightProbeVolumeOverride: {fileID: 0}
  m_ScaleInLightmap: 1
  m_PreserveUVs: 0
  m_IgnoreNormalsForChartDetection: 0
  m_ImportantGI: 0
  m_StitchLightmapSeams: 0
  m_SelectedEditorRenderState: 3
  m_MinimumChartSize: 4
  m_AutoUVMaxDistance: 0.5
  m_AutoUVMaxAngle: 89
  m_LightmapParameters: {fileID: 0}
  m_SortingLayerID: 0
  m_SortingLayer: 0
  m_SortingOrder: 0
--- !u!33 &1126888903
MeshFilter:
  m_ObjectHideFlags: 0
  m_PrefabParentObject: {fileID: 33266860894954662, guid: 5d6825fa9f2b65046bb1d40e309ee4e6,
    type: 2}
  m_PrefabInternal: {fileID: 1406629791}
  m_GameObject: {fileID: 1126888900}
  m_Mesh: {fileID: 4300010, guid: b16a7d757f6a821439dd5465eabc9d3e, type: 3}
--- !u!1 &1159526135
GameObject:
  m_ObjectHideFlags: 0
  m_PrefabParentObject: {fileID: 0}
  m_PrefabInternal: {fileID: 0}
  serializedVersion: 5
  m_Component:
  - component: {fileID: 1159526137}
  - component: {fileID: 1159526136}
  m_Layer: 0
  m_Name: Directional Light
  m_TagString: Untagged
  m_Icon: {fileID: 0}
  m_NavMeshLayer: 0
  m_StaticEditorFlags: 0
  m_IsActive: 1
--- !u!108 &1159526136
Light:
  m_ObjectHideFlags: 0
  m_PrefabParentObject: {fileID: 0}
  m_PrefabInternal: {fileID: 0}
  m_GameObject: {fileID: 1159526135}
  m_Enabled: 1
  serializedVersion: 8
  m_Type: 1
  m_Color: {r: 1, g: 0.95686275, b: 0.8392157, a: 1}
  m_Intensity: 1
  m_Range: 10
  m_SpotAngle: 30
  m_CookieSize: 10
  m_Shadows:
    m_Type: 2
    m_Resolution: -1
    m_CustomResolution: -1
    m_Strength: 1
    m_Bias: 0.05
    m_NormalBias: 0.4
    m_NearPlane: 0.2
  m_Cookie: {fileID: 0}
  m_DrawHalo: 0
  m_Flare: {fileID: 0}
  m_RenderMode: 0
  m_CullingMask:
    serializedVersion: 2
    m_Bits: 4294967295
  m_Lightmapping: 4
  m_AreaSize: {x: 1, y: 1}
  m_BounceIntensity: 1
  m_ColorTemperature: 6570
  m_UseColorTemperature: 0
  m_ShadowRadius: 0
  m_ShadowAngle: 0
--- !u!4 &1159526137
Transform:
  m_ObjectHideFlags: 0
  m_PrefabParentObject: {fileID: 0}
  m_PrefabInternal: {fileID: 0}
  m_GameObject: {fileID: 1159526135}
  m_LocalRotation: {x: 0.40821788, y: -0.23456968, z: 0.10938163, w: 0.8754261}
  m_LocalPosition: {x: 0, y: 3, z: 0}
  m_LocalScale: {x: 1, y: 1, z: 1}
  m_Children: []
  m_Father: {fileID: 0}
  m_RootOrder: 2
  m_LocalEulerAnglesHint: {x: 50, y: -30, z: 0}
--- !u!1 &1238516387
GameObject:
  m_ObjectHideFlags: 0
  m_PrefabParentObject: {fileID: 1379170111528404, guid: 5d6825fa9f2b65046bb1d40e309ee4e6,
    type: 2}
  m_PrefabInternal: {fileID: 1406629791}
  serializedVersion: 5
  m_Component:
  - component: {fileID: 1238516388}
  - component: {fileID: 1238516390}
  - component: {fileID: 1238516389}
  m_Layer: 0
  m_Name: DoorPart6
  m_TagString: Untagged
  m_Icon: {fileID: 0}
  m_NavMeshLayer: 0
  m_StaticEditorFlags: 0
  m_IsActive: 1
--- !u!4 &1238516388
Transform:
  m_ObjectHideFlags: 0
  m_PrefabParentObject: {fileID: 4962382534891174, guid: 5d6825fa9f2b65046bb1d40e309ee4e6,
    type: 2}
  m_PrefabInternal: {fileID: 1406629791}
  m_GameObject: {fileID: 1238516387}
  m_LocalRotation: {x: 0.49999997, y: 0.5000001, z: -0.5, w: -0.49999988}
  m_LocalPosition: {x: 0.23790178, y: 0.366498, z: 1.1362683}
  m_LocalScale: {x: 0.5734244, y: 7.4262524, z: 4.0506706}
  m_Children: []
  m_Father: {fileID: 592565228}
  m_RootOrder: 5
  m_LocalEulerAnglesHint: {x: 0, y: 0, z: 0}
--- !u!23 &1238516389
MeshRenderer:
  m_ObjectHideFlags: 0
  m_PrefabParentObject: {fileID: 23659402264032194, guid: 5d6825fa9f2b65046bb1d40e309ee4e6,
    type: 2}
  m_PrefabInternal: {fileID: 1406629791}
  m_GameObject: {fileID: 1238516387}
  m_Enabled: 1
  m_CastShadows: 1
  m_ReceiveShadows: 1
  m_DynamicOccludee: 1
  m_MotionVectors: 1
  m_LightProbeUsage: 1
  m_ReflectionProbeUsage: 1
  m_RenderingLayerMask: 4294967295
  m_Materials:
  - {fileID: 2100000, guid: a921dc4b007475748ae3e453645271b6, type: 2}
  m_StaticBatchInfo:
    firstSubMesh: 0
    subMeshCount: 0
  m_StaticBatchRoot: {fileID: 0}
  m_ProbeAnchor: {fileID: 0}
  m_LightProbeVolumeOverride: {fileID: 0}
  m_ScaleInLightmap: 1
  m_PreserveUVs: 0
  m_IgnoreNormalsForChartDetection: 0
  m_ImportantGI: 0
  m_StitchLightmapSeams: 0
  m_SelectedEditorRenderState: 3
  m_MinimumChartSize: 4
  m_AutoUVMaxDistance: 0.5
  m_AutoUVMaxAngle: 89
  m_LightmapParameters: {fileID: 0}
  m_SortingLayerID: 0
  m_SortingLayer: 0
  m_SortingOrder: 0
--- !u!33 &1238516390
MeshFilter:
  m_ObjectHideFlags: 0
  m_PrefabParentObject: {fileID: 33525851883891620, guid: 5d6825fa9f2b65046bb1d40e309ee4e6,
    type: 2}
  m_PrefabInternal: {fileID: 1406629791}
  m_GameObject: {fileID: 1238516387}
  m_Mesh: {fileID: 4300000, guid: b16a7d757f6a821439dd5465eabc9d3e, type: 3}
--- !u!1001 &1406629791
Prefab:
  m_ObjectHideFlags: 0
  serializedVersion: 2
  m_Modification:
    m_TransformParent: {fileID: 0}
    m_Modifications:
    - target: {fileID: 4106644747801316, guid: 5d6825fa9f2b65046bb1d40e309ee4e6, type: 2}
      propertyPath: m_LocalPosition.x
      value: 13.105774
      objectReference: {fileID: 0}
    - target: {fileID: 4106644747801316, guid: 5d6825fa9f2b65046bb1d40e309ee4e6, type: 2}
      propertyPath: m_LocalPosition.y
      value: -0.24257389
      objectReference: {fileID: 0}
    - target: {fileID: 4106644747801316, guid: 5d6825fa9f2b65046bb1d40e309ee4e6, type: 2}
      propertyPath: m_LocalPosition.z
      value: 10.180735
      objectReference: {fileID: 0}
    - target: {fileID: 4106644747801316, guid: 5d6825fa9f2b65046bb1d40e309ee4e6, type: 2}
      propertyPath: m_LocalRotation.x
      value: -0.7071069
      objectReference: {fileID: 0}
    - target: {fileID: 4106644747801316, guid: 5d6825fa9f2b65046bb1d40e309ee4e6, type: 2}
      propertyPath: m_LocalRotation.y
      value: -0.000000015454308
      objectReference: {fileID: 0}
    - target: {fileID: 4106644747801316, guid: 5d6825fa9f2b65046bb1d40e309ee4e6, type: 2}
      propertyPath: m_LocalRotation.z
      value: -0.000000015454312
      objectReference: {fileID: 0}
    - target: {fileID: 4106644747801316, guid: 5d6825fa9f2b65046bb1d40e309ee4e6, type: 2}
      propertyPath: m_LocalRotation.w
      value: 0.7071067
      objectReference: {fileID: 0}
    - target: {fileID: 4106644747801316, guid: 5d6825fa9f2b65046bb1d40e309ee4e6, type: 2}
      propertyPath: m_RootOrder
      value: 1
      objectReference: {fileID: 0}
    - target: {fileID: 1327940276222162, guid: 5d6825fa9f2b65046bb1d40e309ee4e6, type: 2}
      propertyPath: m_Name
      value: ChurchForUnity
      objectReference: {fileID: 0}
    m_RemovedComponents: []
  m_ParentPrefab: {fileID: 100100000, guid: 5d6825fa9f2b65046bb1d40e309ee4e6, type: 2}
  m_RootGameObject: {fileID: 1089356979}
  m_IsPrefabParent: 0
--- !u!1 &1418067064
GameObject:
  m_ObjectHideFlags: 0
  m_PrefabParentObject: {fileID: 1171777673009692, guid: 5d6825fa9f2b65046bb1d40e309ee4e6,
    type: 2}
  m_PrefabInternal: {fileID: 1406629791}
  serializedVersion: 5
  m_Component:
  - component: {fileID: 1418067065}
  - component: {fileID: 1418067067}
  - component: {fileID: 1418067066}
  m_Layer: 0
  m_Name: DoorPart5
  m_TagString: Untagged
  m_Icon: {fileID: 0}
  m_NavMeshLayer: 0
  m_StaticEditorFlags: 0
  m_IsActive: 1
--- !u!4 &1418067065
Transform:
  m_ObjectHideFlags: 0
  m_PrefabParentObject: {fileID: 4006539821184198, guid: 5d6825fa9f2b65046bb1d40e309ee4e6,
    type: 2}
  m_PrefabInternal: {fileID: 1406629791}
  m_GameObject: {fileID: 1418067064}
  m_LocalRotation: {x: 0.49999997, y: 0.5000001, z: -0.5, w: -0.49999988}
  m_LocalPosition: {x: 0.23790178, y: 0.20383891, z: 1.1362683}
  m_LocalScale: {x: 0.5734244, y: 7.4262524, z: 4.0506706}
  m_Children: []
  m_Father: {fileID: 592565228}
  m_RootOrder: 4
  m_LocalEulerAnglesHint: {x: 0, y: 0, z: 0}
--- !u!23 &1418067066
MeshRenderer:
  m_ObjectHideFlags: 0
  m_PrefabParentObject: {fileID: 23823640671015080, guid: 5d6825fa9f2b65046bb1d40e309ee4e6,
    type: 2}
  m_PrefabInternal: {fileID: 1406629791}
  m_GameObject: {fileID: 1418067064}
  m_Enabled: 1
  m_CastShadows: 1
  m_ReceiveShadows: 1
  m_DynamicOccludee: 1
  m_MotionVectors: 1
  m_LightProbeUsage: 1
  m_ReflectionProbeUsage: 1
  m_RenderingLayerMask: 4294967295
  m_Materials:
  - {fileID: 2100000, guid: a921dc4b007475748ae3e453645271b6, type: 2}
  m_StaticBatchInfo:
    firstSubMesh: 0
    subMeshCount: 0
  m_StaticBatchRoot: {fileID: 0}
  m_ProbeAnchor: {fileID: 0}
  m_LightProbeVolumeOverride: {fileID: 0}
  m_ScaleInLightmap: 1
  m_PreserveUVs: 0
  m_IgnoreNormalsForChartDetection: 0
  m_ImportantGI: 0
  m_StitchLightmapSeams: 0
  m_SelectedEditorRenderState: 3
  m_MinimumChartSize: 4
  m_AutoUVMaxDistance: 0.5
  m_AutoUVMaxAngle: 89
  m_LightmapParameters: {fileID: 0}
  m_SortingLayerID: 0
  m_SortingLayer: 0
  m_SortingOrder: 0
--- !u!33 &1418067067
MeshFilter:
  m_ObjectHideFlags: 0
  m_PrefabParentObject: {fileID: 33200946775267662, guid: 5d6825fa9f2b65046bb1d40e309ee4e6,
    type: 2}
  m_PrefabInternal: {fileID: 1406629791}
  m_GameObject: {fileID: 1418067064}
  m_Mesh: {fileID: 4300002, guid: b16a7d757f6a821439dd5465eabc9d3e, type: 3}
--- !u!1 &1663777034
GameObject:
  m_ObjectHideFlags: 0
  m_PrefabParentObject: {fileID: 1988035994563976, guid: 5d6825fa9f2b65046bb1d40e309ee4e6,
    type: 2}
  m_PrefabInternal: {fileID: 1406629791}
  serializedVersion: 5
  m_Component:
  - component: {fileID: 1663777035}
  - component: {fileID: 1663777037}
  - component: {fileID: 1663777036}
  m_Layer: 0
  m_Name: DoorPart3
  m_TagString: Untagged
  m_Icon: {fileID: 0}
  m_NavMeshLayer: 0
  m_StaticEditorFlags: 0
  m_IsActive: 1
--- !u!4 &1663777035
Transform:
  m_ObjectHideFlags: 0
  m_PrefabParentObject: {fileID: 4501389190195460, guid: 5d6825fa9f2b65046bb1d40e309ee4e6,
    type: 2}
  m_PrefabInternal: {fileID: 1406629791}
  m_GameObject: {fileID: 1663777034}
  m_LocalRotation: {x: 0.49999997, y: 0.5000001, z: -0.5, w: -0.49999988}
  m_LocalPosition: {x: 0.23790178, y: 0.366498, z: 0.78133863}
  m_LocalScale: {x: 0.5734244, y: 7.4262524, z: 4.0506706}
  m_Children: []
  m_Father: {fileID: 592565228}
  m_RootOrder: 2
  m_LocalEulerAnglesHint: {x: 0, y: 0, z: 0}
--- !u!23 &1663777036
MeshRenderer:
  m_ObjectHideFlags: 0
  m_PrefabParentObject: {fileID: 23915576476492442, guid: 5d6825fa9f2b65046bb1d40e309ee4e6,
    type: 2}
  m_PrefabInternal: {fileID: 1406629791}
  m_GameObject: {fileID: 1663777034}
  m_Enabled: 1
  m_CastShadows: 1
  m_ReceiveShadows: 1
  m_DynamicOccludee: 1
  m_MotionVectors: 1
  m_LightProbeUsage: 1
  m_ReflectionProbeUsage: 1
  m_RenderingLayerMask: 4294967295
  m_Materials:
  - {fileID: 2100000, guid: a921dc4b007475748ae3e453645271b6, type: 2}
  m_StaticBatchInfo:
    firstSubMesh: 0
    subMeshCount: 0
  m_StaticBatchRoot: {fileID: 0}
  m_ProbeAnchor: {fileID: 0}
  m_LightProbeVolumeOverride: {fileID: 0}
  m_ScaleInLightmap: 1
  m_PreserveUVs: 0
  m_IgnoreNormalsForChartDetection: 0
  m_ImportantGI: 0
  m_StitchLightmapSeams: 0
  m_SelectedEditorRenderState: 3
  m_MinimumChartSize: 4
  m_AutoUVMaxDistance: 0.5
  m_AutoUVMaxAngle: 89
  m_LightmapParameters: {fileID: 0}
  m_SortingLayerID: 0
  m_SortingLayer: 0
  m_SortingOrder: 0
--- !u!33 &1663777037
MeshFilter:
  m_ObjectHideFlags: 0
  m_PrefabParentObject: {fileID: 33781073180294280, guid: 5d6825fa9f2b65046bb1d40e309ee4e6,
    type: 2}
  m_PrefabInternal: {fileID: 1406629791}
  m_GameObject: {fileID: 1663777034}
  m_Mesh: {fileID: 4300006, guid: b16a7d757f6a821439dd5465eabc9d3e, type: 3}
--- !u!1 &1975010871
GameObject:
  m_ObjectHideFlags: 0
  m_PrefabParentObject: {fileID: 0}
  m_PrefabInternal: {fileID: 0}
  serializedVersion: 5
  m_Component:
  - component: {fileID: 1975010876}
  - component: {fileID: 1975010875}
  - component: {fileID: 1975010874}
  - component: {fileID: 1975010873}
  - component: {fileID: 1975010872}
  m_Layer: 0
  m_Name: Main Camera
  m_TagString: MainCamera
  m_Icon: {fileID: 0}
  m_NavMeshLayer: 0
  m_StaticEditorFlags: 0
  m_IsActive: 1
--- !u!81 &1975010872
AudioListener:
  m_ObjectHideFlags: 0
  m_PrefabParentObject: {fileID: 0}
  m_PrefabInternal: {fileID: 0}
  m_GameObject: {fileID: 1975010871}
  m_Enabled: 1
--- !u!124 &1975010873
Behaviour:
  m_ObjectHideFlags: 0
  m_PrefabParentObject: {fileID: 0}
  m_PrefabInternal: {fileID: 0}
  m_GameObject: {fileID: 1975010871}
  m_Enabled: 1
--- !u!92 &1975010874
Behaviour:
  m_ObjectHideFlags: 0
  m_PrefabParentObject: {fileID: 0}
  m_PrefabInternal: {fileID: 0}
  m_GameObject: {fileID: 1975010871}
  m_Enabled: 1
--- !u!20 &1975010875
Camera:
  m_ObjectHideFlags: 0
  m_PrefabParentObject: {fileID: 0}
  m_PrefabInternal: {fileID: 0}
  m_GameObject: {fileID: 1975010871}
  m_Enabled: 1
  serializedVersion: 2
  m_ClearFlags: 1
  m_BackGroundColor: {r: 0.19215687, g: 0.3019608, b: 0.4745098, a: 0}
  m_NormalizedViewPortRect:
    serializedVersion: 2
    x: 0
    y: 0
    width: 1
    height: 1
  near clip plane: 0.3
  far clip plane: 1000
  field of view: 60
  orthographic: 0
  orthographic size: 5
  m_Depth: -1
  m_CullingMask:
    serializedVersion: 2
    m_Bits: 4294967295
  m_RenderingPath: -1
  m_TargetTexture: {fileID: 0}
  m_TargetDisplay: 0
  m_TargetEye: 3
  m_HDR: 1
  m_AllowMSAA: 1
  m_AllowDynamicResolution: 0
  m_ForceIntoRT: 0
  m_OcclusionCulling: 1
  m_StereoConvergence: 10
  m_StereoSeparation: 0.022
--- !u!4 &1975010876
Transform:
  m_ObjectHideFlags: 0
  m_PrefabParentObject: {fileID: 0}
  m_PrefabInternal: {fileID: 0}
  m_GameObject: {fileID: 1975010871}
  m_LocalRotation: {x: 0.11503974, y: -0.37201613, z: 0.047226865, w: 0.9198584}
  m_LocalPosition: {x: 16.31, y: 2.52, z: 6.14}
  m_LocalScale: {x: 1, y: 1, z: 1}
  m_Children: []
  m_Father: {fileID: 0}
  m_RootOrder: 0
  m_LocalEulerAnglesHint: {x: 14.287001, y: -44.030003, z: 0.076000005}
--- !u!1 &2066434729
GameObject:
  m_ObjectHideFlags: 0
  m_PrefabParentObject: {fileID: 1870425850790020, guid: 5d6825fa9f2b65046bb1d40e309ee4e6,
    type: 2}
  m_PrefabInternal: {fileID: 1406629791}
  serializedVersion: 5
  m_Component:
  - component: {fileID: 2066434730}
  - component: {fileID: 2066434732}
  - component: {fileID: 2066434731}
  m_Layer: 0
  m_Name: Hand1
  m_TagString: Untagged
  m_Icon: {fileID: 0}
  m_NavMeshLayer: 0
  m_StaticEditorFlags: 0
  m_IsActive: 1
--- !u!4 &2066434730
Transform:
  m_ObjectHideFlags: 0
  m_PrefabParentObject: {fileID: 4756187707625552, guid: 5d6825fa9f2b65046bb1d40e309ee4e6,
    type: 2}
  m_PrefabInternal: {fileID: 1406629791}
  m_GameObject: {fileID: 2066434729}
  m_LocalRotation: {x: -0.000000015454312, y: 0.7071067, z: 0.000000015454308, w: 0.7071068}
  m_LocalPosition: {x: 0.28490564, y: 0.28829804, z: 0.09280411}
  m_LocalScale: {x: 0.6564196, y: 0.6564196, z: 0.41621685}
  m_Children: []
  m_Father: {fileID: 592565228}
  m_RootOrder: 6
  m_LocalEulerAnglesHint: {x: 0, y: 0, z: 0}
--- !u!23 &2066434731
MeshRenderer:
  m_ObjectHideFlags: 0
  m_PrefabParentObject: {fileID: 23466990252488600, guid: 5d6825fa9f2b65046bb1d40e309ee4e6,
    type: 2}
  m_PrefabInternal: {fileID: 1406629791}
  m_GameObject: {fileID: 2066434729}
  m_Enabled: 1
  m_CastShadows: 1
  m_ReceiveShadows: 1
  m_DynamicOccludee: 1
  m_MotionVectors: 1
  m_LightProbeUsage: 1
  m_ReflectionProbeUsage: 1
  m_RenderingLayerMask: 4294967295
  m_Materials:
  - {fileID: 2100000, guid: a921dc4b007475748ae3e453645271b6, type: 2}
  m_StaticBatchInfo:
    firstSubMesh: 0
    subMeshCount: 0
  m_StaticBatchRoot: {fileID: 0}
  m_ProbeAnchor: {fileID: 0}
  m_LightProbeVolumeOverride: {fileID: 0}
  m_ScaleInLightmap: 1
  m_PreserveUVs: 0
  m_IgnoreNormalsForChartDetection: 0
  m_ImportantGI: 0
  m_StitchLightmapSeams: 0
  m_SelectedEditorRenderState: 3
  m_MinimumChartSize: 4
  m_AutoUVMaxDistance: 0.5
  m_AutoUVMaxAngle: 89
  m_LightmapParameters: {fileID: 0}
  m_SortingLayerID: 0
  m_SortingLayer: 0
  m_SortingOrder: 0
--- !u!33 &2066434732
MeshFilter:
  m_ObjectHideFlags: 0
  m_PrefabParentObject: {fileID: 33610212872104290, guid: 5d6825fa9f2b65046bb1d40e309ee4e6,
    type: 2}
  m_PrefabInternal: {fileID: 1406629791}
  m_GameObject: {fileID: 2066434729}
  m_Mesh: {fileID: 4300016, guid: b16a7d757f6a821439dd5465eabc9d3e, type: 3}
